-------------------------------------------------------------------------------
Test set: controllers.BicicletaControllerTest
-------------------------------------------------------------------------------
Tests run: 13, Failures: 0, Errors: 0, Skipped: 0, Time elapsed: 1.595 s - in controllers.BicicletaControllerTest
