-------------------------------------------------------------------------------
Test set: controllers.TotemControllerTest
-------------------------------------------------------------------------------
Tests run: 11, Failures: 0, Errors: 0, Skipped: 0, Time elapsed: 0.063 s - in controllers.TotemControllerTest
